%YAML 1.1
%TAG !u! tag:unity3d.com,2011:
--- !u!114 &11400000
MonoBehaviour:
  m_ObjectHideFlags: 0
  m_CorrespondingSourceObject: {fileID: 0}
  m_PrefabInstance: {fileID: 0}
  m_PrefabAsset: {fileID: 0}
  m_GameObject: {fileID: 0}
  m_Enabled: 1
  m_EditorHideFlags: 0
  m_Script: {fileID: 11500000, guid: 9422f35ddd90ceb408e9128ac4245184, type: 3}
  m_Name: Tonto
  m_EditorClassIdentifier: 
  "da\xF1o": 7
  color: 0
  nombre: Tonto
  descripcion: Eres tonto
