# Blender MTL File: 'Modelado_4D_Hiena.blend'
# Material Count: 5

newmtl Cinturon
Ns 225.000000
Ka 1.000000 1.000000 1.000000
Kd 0.800000 0.024897 0.007058
Ks 0.500000 0.500000 0.500000
Ke 0.000000 0.000000 0.000000
Ni 1.450000
d 1.000000
illum 2

newmtl Material
Ns 323.999994
Ka 1.000000 1.000000 1.000000
Kd 0.800000 0.800000 0.800000
Ks 0.500000 0.500000 0.500000
Ke 0.000000 0.000000 0.000000
Ni 1.450000
d 1.000000
illum 2

newmtl Pantalones
Ns 225.000000
Ka 1.000000 1.000000 1.000000
Kd 0.031632 0.051860 0.162642
Ks 0.500000 0.500000 0.500000
Ke 0.000000 0.000000 0.000000
Ni 1.450000
d 1.000000
illum 2

newmtl skin
Ns 225.000000
Ka 1.000000 1.000000 1.000000
Kd 0.800000 0.165346 0.007831
Ks 0.500000 0.500000 0.500000
Ke 0.000000 0.000000 0.000000
Ni 1.450000
d 1.000000
illum 2

newmtl uwu
Ns 225.000000
Ka 1.000000 1.000000 1.000000
Kd 0.800000 0.598322 0.060101
Ks 0.500000 0.500000 0.500000
Ke 0.000000 0.000000 0.000000
Ni 1.450000
d 1.000000
illum 2
